Cross Validation
…
rmse(lin_mod, test_df)
## [1] 0.7163422
rmse(nonlin_mod, test_df)
## [1] 0.2437012
rmse(wiggly_mod, test_df)
## [1] 0.3471883

CV using modelr

cv_df = 
  crossv_mc(nonlin_df, 100) 

cv_df %>% pull(train) %>% .[[1]] %>% as_tibble
## # A tibble: 79 x 3
##       id     x       y
##    <int> <dbl>   <dbl>
##  1     1 0.266  1.11  
##  2     2 0.372  0.764 
##  3     3 0.573  0.358 
##  4     5 0.202  1.33  
##  5     7 0.945 -3.27  
##  6     8 0.661 -0.615 
##  7     9 0.629  0.0878
##  8    11 0.206  1.63  
##  9    12 0.177  0.836 
## 10    14 0.384  0.938 
## # ... with 69 more rows
cv_df %>% pull(test) %>% .[[1]] %>% as_tibble
## # A tibble: 21 x 3
##       id      x       y
##    <int>  <dbl>   <dbl>
##  1     4 0.908  -3.04  
##  2     6 0.898  -1.99  
##  3    10 0.0618  0.392 
##  4    13 0.687  -0.291 
##  5    15 0.770  -1.43  
##  6    17 0.718  -1.29  
##  7    23 0.652  -0.0535
##  8    42 0.647   0.158 
##  9    46 0.789  -1.23  
## 10    50 0.693  -0.684 
## # ... with 11 more rows
…
