Linear models
…
Boro: Bronx
-90.254
0.000

broom::tidy works with lots of things…

Diagnostics

nyc_airbnb %>% 
  modelr::add_residuals(fit) %>% 
  modelr::add_predictions(fit)
## # A tibble: 40,492 x 7
##    price stars boro  neighborhood room_type        resid  pred
##    <int> <dbl> <fct> <chr>        <fct>            <dbl> <dbl>
##  1    99   5   Bronx City Island  Private room      9.47  89.5
##  2   200  NA   Bronx City Island  Private room     NA     NA  
##  3   300  NA   Bronx City Island  Entire home/apt  NA     NA  
##  4   125   5   Bronx City Island  Entire home/apt  35.5   89.5
##  5    69   5   Bronx City Island  Private room    -20.5   89.5
##  6   125   5   Bronx City Island  Entire home/apt  35.5   89.5
##  7    85   5   Bronx City Island  Entire home/apt  -4.53  89.5
##  8    39   4.5 Bronx Allerton     Private room    -34.5   73.5
##  9    95   5   Bronx Allerton     Entire home/apt   5.47  89.5
## 10   125   4.5 Bronx Allerton     Entire home/apt  51.5   73.5
## # ... with 40,482 more rows
…
tradeoff: nesting gives you separate models, which is an easy-to-interpret way to examine effect modification in an exploratory way. But it doesn’t give a way to test.

Even more extreme:

manhattan_airbnb =
  nyc_airbnb %>% 
  filter(boro == "Manhattan")

manhattan_airbnb %>% 
  count(neighborhood)
## # A tibble: 32 x 2
##    neighborhood           n
##    <chr>              <int>
##  1 Battery Park City     65
##  2 Chelsea             1072
##  3 Chinatown            360
##  4 Civic Center          42
##  5 East Harlem         1048
##  6 East Village        1858
##  7 Financial District   391
##  8 Flatiron District     90
##  9 Gramercy             307
## 10 Greenwich Village    383
## # ... with 22 more rows
…
victim_sexMale
-0.880
0.415
0.000

We can also compute fitted values; similarly to the estimates in the model summary, these are expressed as log odds and can be transformed to produce probabilities for each subject.

baltimore_df %>% 
  modelr::add_predictions(fit_logistic) %>% 
  mutate(fitted_prob = boot::inv.logit(pred))
## # A tibble: 2,827 x 15
##    uid   reported_date victim_last victim_first victim_race victim_age
##    <chr>         <int> <chr>       <chr>        <fct>            <dbl>
##  1 Bal-…      20070101 NELSON      LEON         Black               17
##  2 Bal-…      20070102 GOLF        EDDIE        Black               26
##  3 Bal-…      20070105 MACKENNEY   THOMAS JOSE… Black               21
##  4 Bal-…      20070105 CANUPP      EDWARD LEE   White               61
##  5 Bal-…      20070106 CUNNINGHAN  MICHAEL      Black               46
##  6 Bal-…      20070106 ALSTON      RAY WILLIAM  Black               27
##  7 Bal-…      20070107 HENDERSON   YULE ANTONIO Black               21
##  8 Bal-…      20070108 MCDOWELL    MARCU        Black               16
##  9 Bal-…      20070108 GARDNER     RODNEY THOM… Black               21
## 10 Bal-…      20070108 BURNETTE    NELSENE      Black               44
## # ... with 2,817 more rows, and 9 more variables: victim_sex <chr>,
## #   city <chr>, state <chr>, lat <dbl>, lon <dbl>, disposition <chr>,
## #   resolved <dbl>, pred <dbl>, fitted_prob <dbl>
…
