Simulation
…
We’ll use the bootstrap to make inference for the data on the right. This is intended largely as an illustration for how to use the bootstrap in cases where the theoretical distribution is “unknown”, although for these data in particular weighted least squares is more appropriate.

Drawing one bootstrap sample

Let’s write a quick function to generate our bootstrap samples. This function should have the data frame as the argument, and should return a sample from that dataframe drawn with replacement.

boot_sample = function(df) {
  sample_frac(df, replace = TRUE)
}

We should also do a quick check to see if this is working.

boot_sample(sim_df_nonconst)
## # A tibble: 250 x 3
##         x   error     y
##     <dbl>   <dbl> <dbl>
## 1  1.33   -1.52    4.47
## 2  0.691   0.637   4.71
## 3  0.170   0.305   2.81
## 4 -0.0626  0.0265  1.84
## 5 -0.963  -0.248  -1.14
## 6  1.71   -2.57    4.57
## # ... with 244 more rows
That looks about right.

Drawing many bootstrap samples

We’re going to draw repeated samples with replacement, and then analyze each of those samples separately. It would be really great to have a data structure that makes it possible to keep track of everything. Maybe a list column??!

Let’s give that a try:

boot_straps = data_frame(
  strap_number = 1:1000,
  strap_sample = rerun(1000, boot_sample(sim_df_nonconst))
)

boot_straps
## # A tibble: 1,000 x 2
##   strap_number strap_sample      
##          <int> <list>            
## 1            1 <tibble [250 × 3]>
## 2            2 <tibble [250 × 3]>
## 3            3 <tibble [250 × 3]>
## 4            4 <tibble [250 × 3]>
## 5            5 <tibble [250 × 3]>
## 6            6 <tibble [250 × 3]>
## # ... with 994 more rows

We can do a few of quick checks to make sure this has worked as intended. First we’ll look at a couple of bootstrap samples.

boot_straps %>% 
  filter(strap_number %in% 1:2) %>% 
  mutate(strap_sample = map(strap_sample, ~arrange(.x, x))) %>% 
  pull(strap_sample)
## [[1]]
## # A tibble: 250 x 3
##        x  error      y
##    <dbl>  <dbl>  <dbl>
## 1 -1.12  -0.187 -1.54 
## 2 -1.12  -0.187 -1.54 
## 3 -0.759  0.146 -0.131
## 4 -0.675  0.324  0.298
## 5 -0.675  0.324  0.298
## 6 -0.658 -0.509 -0.483
## # ... with 244 more rows
## 
## [[2]]
## # A tibble: 250 x 3
##        x  error       y
##    <dbl>  <dbl>   <dbl>
## 1 -1.32   1.94  -0.0246
## 2 -0.854 -0.210 -0.771 
## 3 -0.854 -0.210 -0.771 
## 4 -0.759  0.146 -0.131 
## 5 -0.658 -0.509 -0.483 
## 6 -0.627  0.514  0.634 
## # ... with 244 more rows
…
bootstrap

Bootstrapping is common enough that it’s been automated, to some degree, in the modelr::boostrap function. This function makes it easy to draw bootstrap samples, and stores them in a mostly-helpful way – as a resample object that can be converted to and treated like a data frame.

library(modelr)

boot_straps = 
  sim_df_nonconst %>% 
  bootstrap(n = 1000)

boot_straps$strap[[1]]
## <resample [250 x 3]> 77, 192, 117, 181, 71, 156, 25, 164, 5, 190, ...
as_data_frame(boot_straps$strap[[1]])
## # A tibble: 250 x 3
##        x   error       y
##    <dbl>   <dbl>   <dbl>
## 1 -0.480  0.0834  0.644 
## 2  2.00  -1.14    6.85  
## 3  2.04   1.27    9.39  
## 4  1.43  -0.132   6.14  
## 5  1.38   1.09    7.24  
## 6 -1.32   1.94   -0.0246
## # ... with 244 more rows
…
